mcu/hands_on_audio_acquisition/plots R2/MCU_power.csv

;Scopy version,f4beeb1
;Exported on,Friday December 06/12/2024
;Device,M2K
;Nr of samples,8820
;Sample rate,1000
;Tool,Oscilloscope
;Additional Information,
Sample,Time(S),CH1(V)
0,0,0.19649
1,0.001,0.19649
2,0.002,0.19649
3,0.003,0.19649
4,0.004,0.19649
5,0.005,0.19649
6,0.006,0.19649
7,0.007,0.19649
8,0.008,0.19649
9,0.009,0.19649
10,0.01,0.19649
11,0.011,0.19649
12,0.012,0.19649
13,0.013,0.19649
14,0.014,0.19649
15,0.015,0.19649
16,0.016,0.19649
17,0.017,0.19649
18,0.018,0.19649
19,0.019,0.19649
20,0.02,0.19649
21,0.021,0.19649
22,0.022,0.19649
23,0.023,0.19649
24,0.024,0.19649
25,0.025,0.19649
26,0.026,0.19649
27,0.027,0.19649
28,0.028,0.19649
29,0.029,0.19649
30,0.03,0.19649
31,0.031,0.19649
32,0.032,0.19649
33,0.033,0.194751
34,0.034,0.19649
35,0.035,0.19649
36,0.036,0.19649
37,0.037,0.19649
38,0.038,0.19649
39,0.039,0.19649
40,0.04,0.19649
41,0.041,0.193012
42,0.042,0.19649
43,0.043,0.19649
44,0.044,0.193012
45,0.045,0.267783
46,0.046,0.420802
47,0.047,0.391241
48,0.048,0.224312
49,0.049,0.199968
50,0.05,0.19649
51,0.051,0.19649
52,0.052,0.19649
53,0.053,0.19649
54,0.054,0.194751
55,0.055,0.19649
56,0.056,0.194751
57,0.057,0.19649
58,0.058,0.19649
59,0.059,0.19649
60,0.06,0.19649
61,0.061,0.194751
62,0.062,0.194751
63,0.063,0.194751
64,0.064,0.194751
65,0.065,0.194751
66,0.066,0.194751
67,0.067,0.194751
68,0.068,0.194751
69,0.069,0.19649
70,0.07,0.194751
71,0.071,0.194751
72,0.072,0.194751
73,0.073,0.194751
74,0.074,0.194751
75,0.075,0.19649
76,0.076,0.194751
77,0.077,0.19649
78,0.078,0.194751
79,0.079,0.194751
80,0.08,0.194751
81,0.081,0.19649
82,0.082,0.19649
83,0.083,0.19649
84,0.084,0.19649
85,0.085,0.194751
86,0.086,0.19649
87,0.087,0.19649
88,0.088,0.193012
89,0.089,0.19649
90,0.09,0.19649
91,0.091,0.19649
92,0.092,0.19649
93,0.093,0.19649
94,0.094,0.194751
95,0.095,0.255611
96,0.096,0.419063
97,0.097,0.403413
98,0.098,0.236484
99,0.099,0.201707
100,0.1,0.19649
101,0.101,0.19649
102,0.102,0.19649
103,0.103,0.19649
104,0.104,0.19649
105,0.105,0.194751
106,0.106,0.19649
107,0.107,0.19649
108,0.108,0.19649
109,0.109,0.19649
110,0.11,0.19649
111,0.111,0.19649
112,0.112,0.19649
113,0.113,0.19649
114,0.114,0.19649
115,0.115,0.19649
116,0.116,0.19649
117,0.117,0.19649
118,0.118,0.194751
119,0.119,0.19649
120,0.12,0.19649
121,0.121,0.19649
122,0.122,0.19649
123,0.123,0.19649
124,0.124,0.19649
125,0.125,0.19649
126,0.126,0.19649
127,0.127,0.19649
128,0.128,0.19649
129,0.129,0.19649
130,0.13,0.19649
131,0.131,0.19649
132,0.132,0.194751
133,0.133,0.198229
134,0.134,0.194751
135,0.135,0.19649
136,0.136,0.19649
137,0.137,0.19649
138,0.138,0.19649
139,0.139,0.19649
140,0.14,0.19649
141,0.141,0.19649
142,0.142,0.19649
143,0.143,0.19649
144,0.144,0.19649
145,0.145,0.243439
146,0.146,0.415585
147,0.147,0.405152
148,0.148,0.233006
149,0.149,0.201707
150,0.15,0.19649
151,0.151,0.19649
152,0.152,0.19649
153,0.153,0.19649
154,0.154,0.19649
155,0.155,0.19649
156,0.156,0.19649
157,0.157,0.19649
158,0.158,0.19649
159,0.159,0.19649
160,0.16,0.19649
161,0.161,0.19649
162,0.162,0.19649
163,0.163,0.19649
164,0.164,0.19649
165,0.165,0.19649
166,0.166,0.19649
167,0.167,0.19649
168,0.168,0.19649
169,0.169,0.19649
170,0.17,0.194751
171,0.171,0.194751
172,0.172,0.194751
173,0.173,0.194751
174,0.174,0.19649
175,0.175,0.194751
176,0.176,0.19649
177,0.177,0.19649
178,0.178,0.193012
179,0.179,0.19649
180,0.18,0.19649
181,0.181,0.194751
182,0.182,0.19649
183,0.183,0.194751
184,0.184,0.19649
185,0.185,0.19649
186,0.186,0.19649
187,0.187,0.19649
188,0.188,0.19649
189,0.189,0.19649
190,0.19,0.19649
191,0.191,0.19649
192,0.192,0.19649
193,0.193,0.19649
194,0.194,0.19649
195,0.195,0.231267
196,0.196,0.413846
197,0.197,0.410369
198,0.198,0.243439
199,0.199,0.201707
200,0.2,0.19649
201,0.201,0.19649
202,0.202,0.19649
203,0.203,0.19649
204,0.204,0.19649
205,0.205,0.19649
206,0.206,0.19649
207,0.207,0.19649
208,0.208,0.19649
209,0.209,0.19649
210,0.21,0.19649
211,0.211,0.19649
212,0.212,0.19649
213,0.213,0.19649
214,0.214,0.19649
215,0.215,0.19649
216,0.216,0.19649
217,0.217,0.19649
218,0.218,0.19649
219,0.219,0.19649
220,0.22,0.19649
221,0.221,0.19649
222,0.222,0.19649
223,0.223,0.19649
224,0.224,0.19649
225,0.225,0.19649
226,0.226,0.19649
227,0.227,0.19649
228,0.228,0.19649
229,0.229,0.19649
230,0.23,0.194751
231,0.231,0.19649
232,0.232,0.19649
233,0.233,0.19649
234,0.234,0.19649
235,0.235,0.194751
236,0.236,0.19649
237,0.237,0.19649
238,0.238,0.19649
239,0.239,0.19649
240,0.24,0.19649
241,0.241,0.194751
242,0.242,0.194751
243,0.243,0.19649
244,0.244,0.19649
245,0.245,0.224312
246,0.246,0.410369
247,0.247,0.413846
248,0.248,0.25735
249,0.249,0.203446
250,0.25,0.198229
251,0.251,0.19649
252,0.252,0.19649
253,0.253,0.19649
254,0.254,0.19649
255,0.255,0.19649
256,0.256,0.19649
257,0.257,0.19649
258,0.258,0.19649
259,0.259,0.19649
260,0.26,0.19649
261,0.261,0.19649
262,0.262,0.19649
263,0.263,0.19649
264,0.264,0.19649
265,0.265,0.19649
266,0.266,0.19649
267,0.267,0.19649
268,0.268,0.19649
269,0.269,0.19649
270,0.27,0.19649
271,0.271,0.19649
272,0.272,0.19649
273,0.273,0.19649
274,0.274,0.19649
275,0.275,0.19649
276,0.276,0.19649
277,0.277,0.19649
278,0.278,0.19649
279,0.279,0.19649
280,0.28,0.19649
281,0.281,0.19649
282,0.282,0.19649
283,0.283,0.19649
284,0.284,0.19649
285,0.285,0.19649
286,0.286,0.19649
287,0.287,0.19649
288,0.288,0.19649
289,0.289,0.19649
290,0.29,0.19649
291,0.291,0.19649
292,0.292,0.19649
293,0.293,0.19649
294,0.294,0.198229
295,0.295,0.215617
296,0.296,0.406891
297,0.297,0.417324
298,0.298,0.267783
299,0.299,0.203446
300,0.3,0.19649
301,0.301,0.19649
302,0.302,0.19649
303,0.303,0.19649
304,0.304,0.19649
305,0.305,0.19649
306,0.306,0.19649
307,0.307,0.19649
308,0.308,0.19649
309,0.309,0.19649
310,0.31,0.19649
311,0.311,0.19649
312,0.312,0.19649
313,0.313,0.19649
314,0.314,0.19649
315,0.315,0.19649
316,0.316,0.19649
317,0.317,0.19649
318,0.318,0.19649
319,0.319,0.19649
320,0.32,0.19649
321,0.321,0.19649
322,0.322,0.19649
323,0.323,0.19649
324,0.324,0.19649
325,0.325,0.19649
326,0.326,0.19649
327,0.327,0.19649
328,0.328,0.19649
329,0.329,0.19649
330,0.33,0.19649
331,0.331,0.19649
332,0.332,0.19649
333,0.333,0.19649
334,0.334,0.19649
335,0.335,0.19649
336,0.336,0.19649
337,0.337,0.19649
338,0.338,0.19649
339,0.339,0.19649
340,0.34,0.19649
341,0.341,0.19649
342,0.342,0.19649
343,0.343,0.19649
344,0.344,0.199968
345,0.345,0.206923
346,0.346,0.398197
347,0.347,0.419063
348,0.348,0.279955
349,0.349,0.203446
350,0.35,0.198229
351,0.351,0.19649
352,0.352,0.19649
353,0.353,0.19649
354,0.354,0.19649
355,0.355,0.19649
356,0.356,0.19649
357,0.357,0.19649
358,0.358,0.19649
359,0.359,0.19649
360,0.36,0.19649
361,0.361,0.19649
362,0.362,0.19649
363,0.363,0.19649
364,0.364,0.19649
365,0.365,0.19649
366,0.366,0.19649
367,0.367,0.19649
368,0.368,0.19649
369,0.369,0.19649
370,0.37,0.19649
371,0.371,0.19649
372,0.372,0.19649
373,0.373,0.19649
374,0.374,0.19649
375,0.375,0.19649
376,0.376,0.19649
377,0.377,0.19649
378,0.378,0.19649
379,0.379,0.19649
380,0.38,0.19649
381,0.381,0.19649
382,0.382,0.19649
383,0.383,0.19649
384,0.384,0.19649
385,0.385,0.194751
386,0.386,0.19649
387,0.387,0.19649
388,0.388,0.19649
389,0.389,0.19649
390,0.39,0.19649
391,0.391,0.19649
392,0.392,0.19649
393,0.393,0.19649
394,0.394,0.199968
395,0.395,0.201707
396,0.396,0.39298
397,0.397,0.419063
398,0.398,0.293866
399,0.399,0.205184
400,0.4,0.19649
401,0.401,0.19649
402,0.402,0.19649
403,0.403,0.19649
404,0.404,0.19649
405,0.405,0.19649
406,0.406,0.19649
407,0.407,0.19649
408,0.408,0.19649
409,0.409,0.19649
410,0.41,0.19649
411,0.411,0.19649
412,0.412,0.19649
413,0.413,0.19649
414,0.414,0.19649
415,0.415,0.19649
416,0.416,0.19649
417,0.417,0.19649
418,0.418,0.19649
419,0.419,0.19649
420,0.42,0.19649
421,0.421,0.19649
422,0.422,0.19649
423,0.423,0.19649
424,0.424,0.19649
425,0.425,0.19649
426,0.426,0.19649
427,0.427,0.19649
428,0.428,0.19649
429,0.429,0.19649
430,0.43,0.19649
431,0.431,0.19649
432,0.432,0.19649
433,0.433,0.19649
434,0.434,0.19649
435,0.435,0.19649
436,0.436,0.19649
437,0.437,0.19649
438,0.438,0.19649
439,0.439,0.19649
440,0.44,0.19649
441,0.441,0.19649
442,0.442,0.19649
443,0.443,0.194751
444,0.444,0.199968
445,0.445,0.19649
446,0.446,0.384286
447,0.447,0.422541
448,0.448,0.297343
449,0.449,0.205184
450,0.45,0.19649
451,0.451,0.19649
452,0.452,0.19649
453,0.453,0.19649
454,0.454,0.19649
455,0.455,0.19649
456,0.456,0.194751
457,0.457,0.19649
458,0.458,0.19649
459,0.459,0.19649
460,0.46,0.193012
461,0.461,0.19649
462,0.462,0.19649
463,0.463,0.19649
464,0.464,0.194751
465,0.465,0.19649
466,0.466,0.19649
467,0.467,0.19649
468,0.468,0.19649
469,0.469,0.19649
470,0.47,0.19649
471,0.471,0.19649
472,0.472,0.194751
473,0.473,0.19649
474,0.474,0.19649
475,0.475,0.19649
476,0.476,0.19649
477,0.477,0.19649
478,0.478,0.19649
479,0.479,0.19649
480,0.48,0.194751
481,0.481,0.194751
482,0.482,0.194751
483,0.483,0.19649
484,0.484,0.194751
485,0.485,0.19649
486,0.486,0.19649
487,0.487,0.194751
488,0.488,0.19649
489,0.489,0.198229
490,0.49,0.194751
491,0.491,0.194751
492,0.492,0.194751
493,0.493,0.194751
494,0.494,0.19649
495,0.495,0.193012
496,0.496,0.372114
497,0.497,0.422541
498,0.498,0.307777
499,0.499,0.205184
500,0.5,0.19649
501,0.501,0.19649
502,0.502,0.19649
503,0.503,0.19649
504,0.504,0.19649
505,0.505,0.19649
506,0.506,0.19649
507,0.507,0.19649
508,0.508,0.19649
509,0.509,0.19649
510,0.51,0.19649
511,0.511,0.19649
512,0.512,0.19649
513,0.513,0.19649
514,0.514,0.19649
515,0.515,0.19649
516,0.516,0.19649
517,0.517,0.193012
518,0.518,0.19649
519,0.519,0.19649
520,0.52,0.19649
521,0.521,0.19649
522,0.522,0.19649
523,0.523,0.194751
524,0.524,0.19649
525,0.525,0.19649
526,0.526,0.19649
527,0.527,0.19649
528,0.528,0.19649
529,0.529,0.19649
530,0.53,0.19649
531,0.531,0.194751
532,0.532,0.19649
533,0.533,0.19649
534,0.534,0.19649
535,0.535,0.19649
536,0.536,0.19649
537,0.537,0.19649
538,0.538,0.19649
539,0.539,0.19649
540,0.54,0.19649
541,0.541,0.19649
542,0.542,0.194751
543,0.543,0.19649
544,0.544,0.198229
545,0.545,0.193012
546,0.546,0.361681
547,0.547,0.426018
548,0.548,0.323426
549,0.549,0.205184
550,0.55,0.198229
551,0.551,0.19649
552,0.552,0.19649
553,0.553,0.19649
554,0.554,0.19649
555,0.555,0.19649
556,0.556,0.19649
557,0.557,0.19649
558,0.558,0.19649
559,0.559,0.19649
560,0.56,0.19649
561,0.561,0.19649
562,0.562,0.194751
563,0.563,0.19649
564,0.564,0.19649
565,0.565,0.19649
566,0.566,0.19649
567,0.567,0.19649
568,0.568,0.19649
569,0.569,0.19649
570,0.57,0.19649
571,0.571,0.19649
572,0.572,0.19649
573,0.573,0.19649
574,0.574,0.193012
575,0.575,0.198229
576,0.576,0.193012
577,0.577,0.19649
578,0.578,0.19649
579,0.579,0.19649
580,0.58,0.19649
581,0.581,0.194751
582,0.582,0.194751
583,0.583,0.19649
584,0.584,0.19649
585,0.585,0.194751
586,0.586,0.19649
587,0.587,0.19649
588,0.588,0.19649
589,0.589,0.194751
590,0.59,0.194751
591,0.591,0.194751
592,0.592,0.194751
593,0.593,0.194751
594,0.594,0.19649
595,0.595,0.189535
596,0.596,0.349509
597,0.597,0.422541
598,0.598,0.33212
599,0.599,0.208662
600,0.6,0.198229
601,0.601,0.19649
602,0.602,0.19649
603,0.603,0.19649
604,0.604,0.194751
605,0.605,0.19649
606,0.606,0.194751
607,0.607,0.194751
608,0.608,0.194751
609,0.609,0.194751
610,0.61,0.194751
611,0.611,0.194751
612,0.612,0.194751
613,0.613,0.194751
614,0.614,0.194751
615,0.615,0.194751
616,0.616,0.194751
617,0.617,0.194751
618,0.618,0.194751
619,0.619,0.194751
620,0.62,0.194751
621,0.621,0.194751
622,0.622,0.194751
623,0.623,0.19649
624,0.624,0.194751
625,0.625,0.194751
626,0.626,0.194751
627,0.627,0.194751
628,0.628,0.194751
629,0.629,0.19649
630,0.63,0.194751
631,0.631,0.194751
632,0.632,0.19649
633,0.633,0.194751
634,0.634,0.19649
635,0.635,0.19649
636,0.636,0.194751
637,0.637,0.19649
638,0.638,0.194751
639,0.639,0.194751
640,0.64,0.19649
641,0.641,0.194751
642,0.642,0.194751
643,0.643,0.194751
644,0.644,0.19649
645,0.645,0.189535
646,0.646,0.337337
647,0.647,0.426018
648,0.648,0.342554
649,0.649,0.208662
650,0.65,0.198229
651,0.651,0.19649
652,0.652,0.19649
653,0.653,0.19649
654,0.654,0.19649
655,0.655,0.19649
656,0.656,0.19649
657,0.657,0.19649
658,0.658,0.19649
659,0.659,0.19649
660,0.66,0.19649
661,0.661,0.19649
662,0.662,0.19649
663,0.663,0.19649
664,0.664,0.194751
665,0.665,0.19649
666,0.666,0.19649
667,0.667,0.194751
668,0.668,0.19649
669,0.669,0.19649
670,0.67,0.194751
671,0.671,0.19649
672,0.672,0.194751
673,0.673,0.19649
674,0.674,0.19649
675,0.675,0.19649
676,0.676,0.193012
677,0.677,0.198229
678,0.678,0.194751
679,0.679,0.19649
680,0.68,0.194751
681,0.681,0.19649
682,0.682,0.194751
683,0.683,0.19649
684,0.684,0.19649
685,0.685,0.19649
686,0.686,0.19649
687,0.687,0.19649
688,0.688,0.194751
689,0.689,0.19649
690,0.69,0.19649
691,0.691,0.19649
692,0.692,0.194751
693,0.693,0.193012
694,0.694,0.198229
695,0.695,0.189535
696,0.696,0.321687
697,0.697,0.426018
698,0.698,0.356464
699,0.699,0.213879
700,0.7,0.198229
701,0.701,0.19649
702,0.702,0.19649
703,0.703,0.19649
704,0.704,0.19649
705,0.705,0.19649
706,0.706,0.19649
707,0.707,0.19649
708,0.708,0.19649
709,0.709,0.19649
710,0.71,0.19649
711,0.711,0.19649
712,0.712,0.19649
713,0.713,0.194751
714,0.714,0.194751
715,0.715,0.194751
716,0.716,0.194751
717,0.717,0.194751
718,0.718,0.19649
719,0.719,0.19649
720,0.72,0.194751
721,0.721,0.194751
722,0.722,0.194751
723,0.723,0.19649
724,0.724,0.194751
725,0.725,0.194751
726,0.726,0.194751
727,0.727,0.194751
728,0.728,0.194751
729,0.729,0.194751
730,0.73,0.194751
731,0.731,0.194751
732,0.732,0.194751
733,0.733,0.194751
734,0.734,0.194751
735,0.735,0.19649
736,0.736,0.19649
737,0.737,0.19649
738,0.738,0.19649
739,0.739,0.194751
740,0.74,0.194751
741,0.741,0.194751
742,0.742,0.194751
743,0.743,0.194751
744,0.744,0.194751
745,0.745,0.191274
746,0.746,0.309515
747,0.747,0.426018
748,0.748,0.361681
749,0.749,0.213879
750,0.75,0.199968
751,0.751,0.19649
752,0.752,0.19649
753,0.753,0.19649
754,0.754,0.19649
755,0.755,0.19649
756,0.756,0.19649
757,0.757,0.19649
758,0.758,0.19649
759,0.759,0.19649
760,0.76,0.19649
761,0.761,0.19649
762,0.762,0.19649
763,0.763,0.19649
764,0.764,0.19649
765,0.765,0.19649
766,0.766,0.19649
767,0.767,0.19649
768,0.768,0.19649
769,0.769,0.19649
770,0.77,0.194751
771,0.771,0.19649
772,0.772,0.19649
773,0.773,0.19649
774,0.774,0.194751
775,0.775,0.19649
776,0.776,0.19649
777,0.777,0.19649
778,0.778,0.19649
779,0.779,0.19649
780,0.78,0.19649
781,0.781,0.19649
782,0.782,0.194751
783,0.783,0.19649
784,0.784,0.19649
785,0.785,0.19649
786,0.786,0.19649
787,0.787,0.19649
788,0.788,0.194751
789,0.789,0.19649
790,0.79,0.19649
791,0.791,0.19649
792,0.792,0.19649
793,0.793,0.19649
794,0.794,0.19649
795,0.795,0.191274
796,0.796,0.293866
797,0.797,0.426018
798,0.798,0.372114
799,0.799,0.219095
800,0.8,0.199968
801,0.801,0.19649
802,0.802,0.19649
803,0.803,0.19649
804,0.804,0.19649
805,0.805,0.19649
806,0.806,0.19649
807,0.807,0.19649
808,0.808,0.19649
809,0.809,0.19649
810,0.81,0.19649
811,0.811,0.19649
812,0.812,0.194751
813,0.813,0.19649
814,0.814,0.19649
815,0.815,0.19649
816,0.816,0.19649
817,0.817,0.194751
818,0.818,0.19649
819,0.819,0.19649
820,0.82,0.19649
821,0.821,0.19649
822,0.822,0.19649
823,0.823,0.19649
824,0.824,0.194751
825,0.825,0.194751
826,0.826,0.194751
827,0.827,0.194751
828,0.828,0.194751
829,0.829,0.194751
830,0.83,0.19649
831,0.831,0.194751
832,0.832,0.19649
833,0.833,0.19649
834,0.834,0.19649
835,0.835,0.19649
836,0.836,0.194751
837,0.837,0.19649
838,0.838,0.19649
839,0.839,0.19649
840,0.84,0.19649
841,0.841,0.19649
842,0.842,0.19649
843,0.843,0.19649
844,0.844,0.19649
845,0.845,0.191274
846,0.846,0.279955
847,0.847,0.422541
848,0.848,0.384286
849,0.849,0.220834
850,0.85,0.201707
851,0.851,0.19649
852,0.852,0.19649
853,0.853,0.19649
854,0.854,0.194751
855,0.855,0.19649
856,0.856,0.19649
857,0.857,0.19649
858,0.858,0.19649
859,0.859,0.194751
860,0.86,0.194751
861,0.861,0.194751
862,0.862,0.194751
863,0.863,0.19649
864,0.864,0.19649
865,0.865,0.19649
866,0.866,0.194751
867,0.867,0.19649
868,0.868,0.19649
869,0.869,0.19649
870,0.87,0.19649
871,0.871,0.19649
872,0.872,0.194751
873,0.873,0.19649
874,0.874,0.19649
875,0.875,0.19649
876,0.876,0.19649
877,0.877,0.194751
878,0.878,0.19649
879,0.879,0.19649
880,0.88,0.19649
881,0.881,0.194751
882,0.882,0.19649
883,0.883,0.19649
884,0.884,0.19649
885,0.885,0.194751
886,0.886,0.19649
887,0.887,0.194751
888,0.888,0.19649
889,0.889,0.194751
890,0.89,0.194751
891,0.891,0.19649
892,0.892,0.19649
893,0.893,0.19649
894,0.894,0.194751
895,0.895,0.194751
896,0.896,0.266044
897,0.897,0.420802
898,0.898,0.391241
899,0.899,0.224312
900,0.9,0.199968
901,0.901,0.19649
902,0.902,0.19649
903,0.903,0.19649
904,0.904,0.19649
905,0.905,0.19649
906,0.906,0.19649
907,0.907,0.194751
908,0.908,0.194751
909,0.909,0.19649
910,0.91,0.19649
911,0.911,0.19649
912,0.912,0.19649
913,0.913,0.19649
914,0.914,0.194751
915,0.915,0.19649
916,0.916,0.19649
917,0.917,0.19649
918,0.918,0.19649
919,0.919,0.19649
920,0.92,0.19649
921,0.921,0.194751
922,0.922,0.19649
923,0.923,0.19649
924,0.924,0.19649
925,0.925,0.194751
926,0.926,0.19649
927,0.927,0.19649
928,0.928,0.19649
929,0.929,0.194751
930,0.93,0.19649
931,0.931,0.194751
932,0.932,0.19649
933,0.933,0.194751
934,0.934,0.198229
935,0.935,0.193012
936,0.936,0.19649
937,0.937,0.19649
938,0.938,0.19649
939,0.939,0.19649
940,0.94,0.19649
941,0.941,0.19649
942,0.942,0.19649
943,0.943,0.19649
944,0.944,0.19649
945,0.945,0.19649
946,0.946,0.252133
947,0.947,0.417324
948,0.948,0.398197
949,0.949,0.366897
950,0.95,0.382547
951,0.951,0.379069
952,0.952,0.382547
953,0.953,0.379069
954,0.954,0.382547
955,0.955,0.380808
956,0.956,0.380808
957,0.957,0.380808
958,0.958,0.380808
959,0.959,0.382547
960,0.96,0.379069
961,0.961,0.382547
962,0.962,0.380808
963,0.963,0.380808
964,0.964,0.380808
965,0.965,0.380808
966,0.966,0.384286
967,0.967,0.379069
968,0.968,0.382547
969,0.969,0.379069
970,0.97,0.382547
971,0.971,0.380808
972,0.972,0.380808
973,0.973,0.380808
974,0.974,0.380808
975,0.975,0.380808
976,0.976,0.379069
977,0.977,0.382547
978,0.978,0.379069
979,0.979,0.380808
980,0.98,0.380808
981,0.981,0.380808
982,0.982,0.380808
983,0.983,0.380808
984,0.984,0.382547
985,0.985,0.379069
986,0.986,0.382547
987,0.987,0.380808
988,0.988,0.380808
989,0.989,0.380808
990,0.99,0.380808
991,0.991,0.380808
992,0.992,0.379069
993,0.993,0.382547
994,0.994,0.379069
995,0.995,0.382547
996,0.996,0.380808
997,0.997,0.380808
998,0.998,0.380808
999,0.999,0.380808
1000,1,0.382547
1001,1.001,0.379069
1002,1.002,0.382547
1003,1.003,0.379069
1004,1.004,0.380808
1005,1.005,0.380808
1006,1.006,0.380808
1007,1.007,0.382547
1008,1.008,0.380808
1009,1.009,0.382547
1010,1.01,0.379069
1011,1.011,0.382547
1012,1.012,0.380808
1013,1.013,0.380808
1014,1.014,0.380808
1015,1.015,0.380808
1016,1.016,0.382547
1017,1.017,0.379069
1018,1.018,0.382547
1019,1.019,0.379069
1020,1.02,0.382547
1021,1.021,0.380808
1022,1.022,0.380808
1023,1.023,0.384286
1024,1.024,0.379069
1025,1.025,0.382547
1026,1.026,0.379069
1027,1.027,0.382547
1028,1.028,0.380808
1029,1.029,0.380808
1030,1.03,0.380808
1031,1.031,0.380808
1032,1.032,0.380808
1033,1.033,0.379069
1034,1.034,0.382547
1035,1.035,0.379069
1036,1.036,0.380808
1037,1.037,0.380808
1038,1.038,0.380808
1039,1.039,0.379069
1040,1.04,0.419063
1041,1.041,0.33212
1042,1.042,0.205184
1043,1.043,0.193012
1044,1.044,0.193012
1045,1.045,0.191274
1046,1.046,0.191274
1047,1.047,0.191274
1048,1.048,0.191274
1049,1.049,0.191274
1050,1.05,0.191274
1051,1.051,0.191274
1052,1.052,0.191274
1053,1.053,0.191274
1054,1.054,0.191274
1055,1.055,0.191274
1056,1.056,0.189535
1057,1.057,0.264305
1058,1.058,0.276477
1059,1.059,0.199968
1060,1.06,0.193012
1061,1.061,0.191274
1062,1.062,0.191274
1063,1.063,0.191274
1064,1.064,0.191274
1065,1.065,0.191274
1066,1.066,0.191274
1067,1.067,0.191274
1068,1.068,0.191274
1069,1.069,0.191274
1070,1.07,0.191274
1071,1.071,0.194751
1072,1.072,0.19649
1073,1.073,0.335598
1074,1.074,0.201707
1075,1.075,0.194751
1076,1.076,0.191274
1077,1.077,0.191274
1078,1.078,0.191274
1079,1.079,0.191274
1080,1.08,0.191274
1081,1.081,0.191274
1082,1.082,0.191274
1083,1.083,0.191274
1084,1.084,0.191274
1085,1.085,0.191274
